{
	"data": [
		{
			"query": "abilities",
			"desc": "Get list of abilities",
			"responseType": "BaseList",
			"param": null,
			"code": {
				"query": "query abilities {\r\n  abilities {\r\n    count\r\n    next\r\n    previous\r\n    results {\r\n      url\r\n      name\r\n    }\r\n  }\r\n}",
				"variable": "",
				"result": "{\r\n  \"data\": {\r\n    \"abilities\": {\r\n      \"count\": 2,\r\n      \"next\": null,\r\n      \"previous\": null,\r\n      \"results\": [\r\n        {\r\n          \"url\": \"https:\/\/pokeapi.co\/api\/v2\/ability\/1\/\",\r\n          \"name\": \"stench\"\r\n        },\r\n        {\r\n          \"url\": \"https:\/\/pokeapi.co\/api\/v2\/ability\/2\/\",\r\n          \"name\": \"drizzle\"\r\n        }\r\n      ]\r\n    }\r\n  }\r\n}"
			}
		},
		{
			"query": "ability",
			"desc": "Get detail of ability",
			"responseType": "BaseResponse",
			"param": "ability: String!",
			"code": {
				"query": "query ability($ability: String!) {\r\n  ability(ability: $ability) {\r\n    params\r\n    status\r\n    message\r\n    response\r\n  }\r\n}",
				"variable": "{\r\n  \"ability\": \"overgrow\"\r\n}",
				"result": "{\r\n\t\"data\": {\r\n\t\t\"ability\": {\r\n\t\t\t\"params\": {\r\n\t\t\t\t\"ability\": \"overgrow\"\r\n\t\t\t},\r\n\t\t\t\"status\": true,\r\n\t\t\t\"message\": \"\",\r\n\t\t\t\"response\": {\r\n\t\t\t\t\"effect_changes\": [],\r\n\t\t\t\t\"effect_entries\": [{\r\n\t\t\t\t\t\"effect\": \"When this Pok\u00E9mon has 1\/3 or less of its HP remaining, its grass-type moves inflict 1.5\u00D7 as much regular damage.\",\r\n\t\t\t\t\t\"language\": {\r\n\t\t\t\t\t\t\"name\": \"en\",\r\n\t\t\t\t\t\t\"url\": \"https:\/\/pokeapi.co\/api\/v2\/language\/9\/\"\r\n\t\t\t\t\t},\r\n\t\t\t\t\t\"short_effect\": \"Strengthens grass moves to inflict 1.5\u00D7 damage at 1\/3 max HP or less.\"\r\n\t\t\t\t}],\r\n\t\t\t\t\"flavor_text_entries\": [{\r\n\t\t\t\t\t\t\"flavor_text\": \"Ups GRASS moves in a pinch.\",\r\n\t\t\t\t\t\t\"language\": {\r\n\t\t\t\t\t\t\t\"name\": \"en\",\r\n\t\t\t\t\t\t\t\"url\": \"https:\/\/pokeapi.co\/api\/v2\/language\/9\/\"\r\n\t\t\t\t\t\t},\r\n\t\t\t\t\t\t\"version_group\": {\r\n\t\t\t\t\t\t\t\"name\": \"ruby-sapphire\",\r\n\t\t\t\t\t\t\t\"url\": \"https:\/\/pokeapi.co\/api\/v2\/version-group\/5\/\"\r\n\t\t\t\t\t\t}\r\n\t\t\t\t\t}\r\n\r\n\t\t\t\t],\r\n\t\t\t\t\"generation\": {\r\n\t\t\t\t\t\"name\": \"generation-iii\",\r\n\t\t\t\t\t\"url\": \"https:\/\/pokeapi.co\/api\/v2\/generation\/3\/\"\r\n\t\t\t\t},\r\n\t\t\t\t\"id\": 65,\r\n\t\t\t\t\"is_main_series\": true,\r\n\t\t\t\t\"name\": \"overgrow\",\r\n\t\t\t\t\"names\": [{\r\n\t\t\t\t\t\"language\": {\r\n\t\t\t\t\t\t\"name\": \"en\",\r\n\t\t\t\t\t\t\"url\": \"https:\/\/pokeapi.co\/api\/v2\/language\/9\/\"\r\n\t\t\t\t\t},\r\n\t\t\t\t\t\"name\": \"Overgrow\"\r\n\t\t\t\t}],\r\n\t\t\t\t\"pokemon\": [{\r\n\t\t\t\t\t\"is_hidden\": false,\r\n\t\t\t\t\t\"pokemon\": {\r\n\t\t\t\t\t\t\"name\": \"bulbasaur\",\r\n\t\t\t\t\t\t\"url\": \"https:\/\/pokeapi.co\/api\/v2\/pokemon\/1\/\"\r\n\t\t\t\t\t},\r\n\t\t\t\t\t\"slot\": 1\r\n\t\t\t\t}]\r\n\t\t\t}\r\n\t\t}\r\n\t}\r\n}"
			}
		},
		{
			"query": "berries",
			"desc": "Get list of berries",
			"responseType": "BaseList",
			"param": null,
			"code": {
				"query": "query berries {\r\n  berries {\r\n    count\r\n    next\r\n    previous\r\n    results {\r\n      url\r\n      name\r\n    }\r\n  }\r\n}",
				"variable": "",
				"result": "{\r\n  \"data\": {\r\n    \"berries\": {\r\n      \"count\": 2,\r\n      \"next\": null,\r\n      \"previous\": null,\r\n      \"results\": [\r\n        {\r\n          \"url\": \"https:\/\/pokeapi.co\/api\/v2\/berry\/1\/\",\r\n          \"name\": \"cheri\"\r\n        },\r\n        {\r\n          \"url\": \"https:\/\/pokeapi.co\/api\/v2\/berry\/2\/\",\r\n          \"name\": \"chesto\"\r\n        }\r\n      ]\r\n    }\r\n  }\r\n}"
			}
		},
		{
			"query": "berry",
			"desc": "Get detail of berry",
			"responseType": "BaseResponse",
			"param": "berry: String!",
			"code": {
				"query": "query berry ($berry: String!) {\r\n  berry (berry: $berry) {\r\n    response\r\n    params\r\n    message\r\n    status\r\n  }\r\n}",
				"variable": "{\r\n  \"berry\": \"cheri\"\r\n}",
				"result": "{\r\n\t\"data\": {\r\n\t\t\"berry\": {\r\n\t\t\t\"response\": {\r\n\t\t\t\t\"firmness\": {\r\n\t\t\t\t\t\"name\": \"soft\",\r\n\t\t\t\t\t\"url\": \"https:\/\/pokeapi.co\/api\/v2\/berry-firmness\/2\/\"\r\n\t\t\t\t},\r\n\t\t\t\t\"flavors\": [{\r\n\t\t\t\t\t\"flavor\": {\r\n\t\t\t\t\t\t\"name\": \"sweet\",\r\n\t\t\t\t\t\t\"url\": \"https:\/\/pokeapi.co\/api\/v2\/berry-flavor\/3\/\"\r\n\t\t\t\t\t},\r\n\t\t\t\t\t\"potency\": 0\r\n\t\t\t\t}],\r\n\t\t\t\t\"growth_time\": 3,\r\n\t\t\t\t\"id\": 1,\r\n\t\t\t\t\"item\": {\r\n\t\t\t\t\t\"name\": \"cheri-berry\",\r\n\t\t\t\t\t\"url\": \"https:\/\/pokeapi.co\/api\/v2\/item\/126\/\"\r\n\t\t\t\t},\r\n\t\t\t\t\"max_harvest\": 5,\r\n\t\t\t\t\"name\": \"cheri\",\r\n\t\t\t\t\"natural_gift_power\": 60,\r\n\t\t\t\t\"natural_gift_type\": {\r\n\t\t\t\t\t\"name\": \"fire\",\r\n\t\t\t\t\t\"url\": \"https:\/\/pokeapi.co\/api\/v2\/type\/10\/\"\r\n\t\t\t\t},\r\n\t\t\t\t\"size\": 20,\r\n\t\t\t\t\"smoothness\": 25,\r\n\t\t\t\t\"soil_dryness\": 15\r\n\t\t\t},\r\n\t\t\t\"params\": {\r\n\t\t\t\t\"berry\": \"cheri\"\r\n\t\t\t},\r\n\t\t\t\"message\": \"\",\r\n\t\t\t\"status\": true\r\n\t\t}\r\n\t}\r\n}"
			}
		},
		{
			"query": "eggGroups",
			"desc": "Get list of eggGroups",
			"responseType": "BaseList",
			"param": null,
			"code": {
				"query": "query eggGroups {\r\n  eggGroups {\r\n    count\r\n    next\r\n    previous\r\n    results {\r\n      url\r\n      name\r\n    }\r\n  }\r\n}",
				"variable": "",
				"result": "{\r\n  \"data\": {\r\n    \"eggGroups\": {\r\n      \"count\": 15,\r\n      \"next\": null,\r\n      \"previous\": null,\r\n      \"results\": [\r\n        {\r\n          \"url\": \"https:\/\/pokeapi.co\/api\/v2\/egg-group\/1\/\",\r\n          \"name\": \"monster\"\r\n        },\r\n        {\r\n          \"url\": \"https:\/\/pokeapi.co\/api\/v2\/egg-group\/2\/\",\r\n          \"name\": \"water1\"\r\n        }\r\n      ]\r\n    }\r\n  }\r\n}"
			}
		},
		{
			"query": "eggGroup",
			"desc": "Get detail of eggGroup",
			"responseType": "BaseResponse",
			"param": "eggGroup: String!",
			"code": {
				"query": "query eggGroup($eggGroup: String!) {\r\n  eggGroup(eggGroup: $eggGroup) {\r\n    params\r\n    status\r\n    message\r\n    response\r\n  }\r\n}",
				"variable": "{\r\n  \"eggGroup\": \"bug\"\r\n}",
				"result": "{\r\n\t\"data\": {\r\n\t\t\"eggGroup\": {\r\n\t\t\t\"params\": {\r\n\t\t\t\t\"eggGroup\": \"bug\"\r\n\t\t\t},\r\n\t\t\t\"status\": true,\r\n\t\t\t\"message\": \"\",\r\n\t\t\t\"response\": {\r\n\t\t\t\t\"id\": 3,\r\n\t\t\t\t\"name\": \"bug\",\r\n\t\t\t\t\"names\": [{\r\n\t\t\t\t\t\"language\": {\r\n\t\t\t\t\t\t\"name\": \"en\",\r\n\t\t\t\t\t\t\"url\": \"https:\/\/pokeapi.co\/api\/v2\/language\/9\/\"\r\n\t\t\t\t\t},\r\n\t\t\t\t\t\"name\": \"Bug\"\r\n\t\t\t\t}],\r\n\t\t\t\t\"pokemon_species\": [{\r\n\t\t\t\t\t\"name\": \"caterpie\",\r\n\t\t\t\t\t\"url\": \"https:\/\/pokeapi.co\/api\/v2\/pokemon-species\/10\/\"\r\n\t\t\t\t}]\r\n\t\t\t}\r\n\t\t}\r\n\t}\r\n}"
			}
		},
		{
			"query": "encounterMethods",
			"desc": "Get list of encounterMethods",
			"responseType": "BaseList",
			"param": null,
			"code": {
				"query": "query encounterMethods {\r\n  encounterMethods {\r\n    count\r\n    next\r\n    previous\r\n    results {\r\n      url\r\n      name\r\n    }\r\n  }\r\n}",
				"variable": "",
				"result": "{\r\n  \"data\": {\r\n    \"encounterMethods\": {\r\n      \"count\": 2,\r\n      \"next\": null,\r\n      \"previous\": null,\r\n      \"results\": [\r\n        {\r\n          \"url\": \"https:\/\/pokeapi.co\/api\/v2\/encounter-method\/1\/\",\r\n          \"name\": \"walk\"\r\n        },\r\n        {\r\n          \"url\": \"https:\/\/pokeapi.co\/api\/v2\/encounter-method\/2\/\",\r\n          \"name\": \"old-rod\"\r\n        }\r\n      ]\r\n    }\r\n  }\r\n}"
			}
		},
		{
			"query": "encounterMethod",
			"desc": "Get detail of encounterMethod",
			"responseType": "BaseResponse",
			"param": "encounterMethod: String!",
			"code": {
				"query": "query encounterMethod($encounterMethod: String!) {\r\n  encounterMethod(encounterMethod: $encounterMethod) {\r\n    params\r\n    status\r\n    message\r\n    response\r\n  }\r\n}",
				"variable": "{\r\n  \"encounterMethod\": \"walk\"\r\n}",
				"result": "{\r\n  \"data\": {\r\n    \"encounterMethod\": {\r\n      \"params\": {\r\n        \"encounterMethod\": \"walk\"\r\n      },\r\n      \"status\": true,\r\n      \"message\": \"\",\r\n      \"response\": {\r\n        \"id\": 1,\r\n        \"name\": \"walk\",\r\n        \"names\": [\r\n          {\r\n            \"language\": {\r\n              \"name\": \"en\",\r\n              \"url\": \"https:\/\/pokeapi.co\/api\/v2\/language\/9\/\"\r\n            },\r\n            \"name\": \"Walking in tall grass or a cave\"\r\n          }\r\n        ],\r\n        \"order\": 1\r\n      }\r\n    }\r\n  }\r\n}"
			}
		},
		{
			"query": "evolutionChains",
			"desc": "Get list of evolutionChains",
			"responseType": "BaseList",
			"param": null,
			"code": {
				"query": "query evolutionChains {\r\n  evolutionChains {\r\n    count\r\n    next\r\n    previous\r\n    results {\r\n      url\r\n      name\r\n    }\r\n  }\r\n}",
				"variable": "",
				"result": "{\r\n  \"data\": {\r\n    \"evolutionChains\": {\r\n      \"count\": 419,\r\n      \"next\": null,\r\n      \"previous\": null,\r\n      \"results\": [\r\n        {\r\n          \"url\": \"https:\/\/pokeapi.co\/api\/v2\/evolution-chain\/1\/\",\r\n          \"name\": \"1\"\r\n        },\r\n        {\r\n          \"url\": \"https:\/\/pokeapi.co\/api\/v2\/evolution-chain\/2\/\",\r\n          \"name\": \"2\"\r\n        }\r\n      ]\r\n    }\r\n  }\r\n}"
			}
		},
		{
			"query": "evolutionChain",
			"desc": "Get detail of evolutionChain",
			"responseType": "BaseResponse",
			"param": "id: String!",
			"code": {
				"query": "query evolutionChain($id: String!) {\r\n  evolutionChain(id: $id) {\r\n    params\r\n    status\r\n    message\r\n    response\r\n  }\r\n}",
				"variable": "{\r\n  \"id\": \"1\"\r\n}",
				"result": "{\r\n  \"data\": {\r\n    \"evolutionChain\": {\r\n      \"params\": {\r\n        \"id\": \"1\"\r\n      },\r\n      \"status\": true,\r\n      \"message\": \"\",\r\n      \"response\": {\r\n        \"baby_trigger_item\": null,\r\n        \"chain\": {\r\n          \"evolution_details\": [],\r\n          \"evolves_to\": [\r\n            {\r\n              \"evolution_details\": [\r\n                {\r\n                  \"gender\": null,\r\n                  \"held_item\": null,\r\n                  \"item\": null,\r\n                  \"known_move\": null,\r\n                  \"known_move_type\": null,\r\n                  \"location\": null,\r\n                  \"min_affection\": null,\r\n                  \"min_beauty\": null,\r\n                  \"min_happiness\": null,\r\n                  \"min_level\": 16,\r\n                  \"needs_overworld_rain\": false,\r\n                  \"party_species\": null,\r\n                  \"party_type\": null,\r\n                  \"relative_physical_stats\": null,\r\n                  \"time_of_day\": \"\",\r\n                  \"trade_species\": null,\r\n                  \"trigger\": {\r\n                    \"name\": \"level-up\",\r\n                    \"url\": \"https:\/\/pokeapi.co\/api\/v2\/evolution-trigger\/1\/\"\r\n                  },\r\n                  \"turn_upside_down\": false\r\n                }\r\n              ],\r\n              \"evolves_to\": [\r\n                {\r\n                  \"evolution_details\": [\r\n                    {\r\n                      \"gender\": null,\r\n                      \"held_item\": null,\r\n                      \"item\": null,\r\n                      \"known_move\": null,\r\n                      \"known_move_type\": null,\r\n                      \"location\": null,\r\n                      \"min_affection\": null,\r\n                      \"min_beauty\": null,\r\n                      \"min_happiness\": null,\r\n                      \"min_level\": 32,\r\n                      \"needs_overworld_rain\": false,\r\n                      \"party_species\": null,\r\n                      \"party_type\": null,\r\n                      \"relative_physical_stats\": null,\r\n                      \"time_of_day\": \"\",\r\n                      \"trade_species\": null,\r\n                      \"trigger\": {\r\n                        \"name\": \"level-up\",\r\n                        \"url\": \"https:\/\/pokeapi.co\/api\/v2\/evolution-trigger\/1\/\"\r\n                      },\r\n                      \"turn_upside_down\": false\r\n                    }\r\n                  ],\r\n                  \"evolves_to\": [],\r\n                  \"is_baby\": false,\r\n                  \"species\": {\r\n                    \"name\": \"venusaur\",\r\n                    \"url\": \"https:\/\/pokeapi.co\/api\/v2\/pokemon-species\/3\/\"\r\n                  }\r\n                }\r\n              ],\r\n              \"is_baby\": false,\r\n              \"species\": {\r\n                \"name\": \"ivysaur\",\r\n                \"url\": \"https:\/\/pokeapi.co\/api\/v2\/pokemon-species\/2\/\"\r\n              }\r\n            }\r\n          ],\r\n          \"is_baby\": false,\r\n          \"species\": {\r\n            \"name\": \"bulbasaur\",\r\n            \"url\": \"https:\/\/pokeapi.co\/api\/v2\/pokemon-species\/1\/\"\r\n          }\r\n        },\r\n        \"id\": 1\r\n      }\r\n    }\r\n  }\r\n}"
			}
		},
		{
			"query": "evolutionTriggers",
			"desc": "Get list of evolutionTriggers",
			"responseType": "BaseList",
			"param": null,
			"code": {
				"query": "query evolutionTriggers {\r\n  evolutionTriggers {\r\n    count\r\n    next\r\n    previous\r\n    results {\r\n      url\r\n      name\r\n    }\r\n  }\r\n}",
				"variable": "",
				"result": "{\r\n  \"data\": {\r\n    \"evolutionTriggers\": {\r\n      \"count\": 2,\r\n      \"next\": null,\r\n      \"previous\": null,\r\n      \"results\": [\r\n        {\r\n          \"url\": \"https:\/\/pokeapi.co\/api\/v2\/evolution-trigger\/1\/\",\r\n          \"name\": \"level-up\"\r\n        },\r\n        {\r\n          \"url\": \"https:\/\/pokeapi.co\/api\/v2\/evolution-trigger\/2\/\",\r\n          \"name\": \"trade\"\r\n        }\r\n      ]\r\n    }\r\n  }\r\n}"
			}
		},
		{
			"query": "evolutionTrigger",
			"desc": "Get detail of evolutionTrigger",
			"responseType": "BaseResponse",
			"param": "name: String!",
			"code": {
				"query": "query evolutionTrigger($name: String!) {\r\n  evolutionTrigger(name: $name) {\r\n    params\r\n    status\r\n    message\r\n    response\r\n  }\r\n}",
				"variable": "{\r\n  \"name\": \"level-up\"\r\n}",
				"result": "{\r\n  \"data\": {\r\n    \"evolutionTrigger\": {\r\n      \"params\": {\r\n        \"name\": \"level-up\"\r\n      },\r\n      \"status\": true,\r\n      \"message\": \"\",\r\n      \"response\": {\r\n        \"id\": 1,\r\n        \"name\": \"level-up\",\r\n        \"names\": [\r\n          {\r\n            \"language\": {\r\n              \"name\": \"en\",\r\n              \"url\": \"https:\/\/pokeapi.co\/api\/v2\/language\/9\/\"\r\n            },\r\n            \"name\": \"Level up\"\r\n          }\r\n        ],\r\n        \"pokemon_species\": [\r\n          {\r\n            \"name\": \"ivysaur\",\r\n            \"url\": \"https:\/\/pokeapi.co\/api\/v2\/pokemon-species\/2\/\"\r\n          },\r\n          {\r\n            \"name\": \"venusaur\",\r\n            \"url\": \"https:\/\/pokeapi.co\/api\/v2\/pokemon-species\/3\/\"\r\n          }\r\n        ]\r\n      }\r\n    }\r\n  }\r\n}"
			}
		},
		{
			"query": "genders",
			"desc": "Get list of genders",
			"responseType": "BaseList",
			"param": null,
			"code": {
				"query": "query genders {\r\n  genders {\r\n    count\r\n    next\r\n    previous\r\n    results {\r\n      url\r\n      name\r\n    }\r\n  }\r\n}",
				"variable": "",
				"result": "{\r\n  \"data\": {\r\n    \"genders\": {\r\n      \"count\": 3,\r\n      \"next\": null,\r\n      \"previous\": null,\r\n      \"results\": [\r\n        {\r\n          \"url\": \"https:\/\/pokeapi.co\/api\/v2\/gender\/1\/\",\r\n          \"name\": \"female\"\r\n        },\r\n        {\r\n          \"url\": \"https:\/\/pokeapi.co\/api\/v2\/gender\/2\/\",\r\n          \"name\": \"male\"\r\n        },\r\n        {\r\n          \"url\": \"https:\/\/pokeapi.co\/api\/v2\/gender\/3\/\",\r\n          \"name\": \"genderless\"\r\n        }\r\n      ]\r\n    }\r\n  }\r\n}"
			}
		},
		{
			"query": "gender",
			"desc": "Get detail of gender",
			"responseType": "BaseResponse",
			"param": "gender: String!",
			"code": {
				"query": "query gender($gender: String!) {\r\n  gender(gender: $gender) {\r\n    params\r\n    status\r\n    message\r\n    response\r\n  }\r\n}",
				"variable": "{\r\n  \"gender\": \"female\"\r\n}",
				"result": "{\r\n  \"data\": {\r\n    \"gender\": {\r\n      \"params\": {\r\n        \"gender\": \"female\"\r\n      },\r\n      \"status\": true,\r\n      \"message\": \"\",\r\n      \"response\": {\r\n        \"id\": 1,\r\n        \"name\": \"female\",\r\n        \"pokemon_species_details\": [\r\n          {\r\n            \"pokemon_species\": {\r\n              \"name\": \"bulbasaur\",\r\n              \"url\": \"https:\/\/pokeapi.co\/api\/v2\/pokemon-species\/1\/\"\r\n            },\r\n            \"rate\": 1\r\n          }\r\n        ]\r\n      }\r\n    }\r\n  }\r\n}"
			}
		},
		{
			"query": "growthRates",
			"desc": "Get list of growthRates",
			"responseType": "BaseList",
			"param": null,
			"code": {
				"query": "query growthRates {\r\n  growthRates {\r\n    count\r\n    next\r\n    previous\r\n    results {\r\n      url\r\n      name\r\n    }\r\n  }\r\n}",
				"variable": "",
				"result": "{\r\n  \"data\": {\r\n    \"growthRates\": {\r\n      \"count\": 6,\r\n      \"next\": null,\r\n      \"previous\": null,\r\n      \"results\": [\r\n        {\r\n          \"url\": \"https:\/\/pokeapi.co\/api\/v2\/growth-rate\/1\/\",\r\n          \"name\": \"slow\"\r\n        },\r\n        {\r\n          \"url\": \"https:\/\/pokeapi.co\/api\/v2\/growth-rate\/2\/\",\r\n          \"name\": \"medium\"\r\n        }\r\n      ]\r\n    }\r\n  }\r\n}"
			}
		},
		{
			"query": "growthRate",
			"desc": "Get detail of growthRate",
			"responseType": "BaseResponse",
			"param": "growthRate: String!",
			"code": {
				"query": "",
				"variable": "",
				"result": ""
			}
		},
		{
			"query": "locations",
			"desc": "Get list of locations",
			"responseType": "BaseList",
			"param": null,
			"code": {
				"query": "query locations {\r\n  locations {\r\n    count\r\n    next\r\n    previous\r\n    results {\r\n      url\r\n      name\r\n    }\r\n  }\r\n}",
				"variable": "",
				"result": "{\r\n  \"data\": {\r\n    \"locations\": {\r\n      \"count\": 2,\r\n      \"next\": null,\r\n      \"previous\": null,\r\n      \"results\": [\r\n        {\r\n          \"url\": \"https:\/\/pokeapi.co\/api\/v2\/location\/1\/\",\r\n          \"name\": \"canalave-city\"\r\n        },\r\n        {\r\n          \"url\": \"https:\/\/pokeapi.co\/api\/v2\/location\/2\/\",\r\n          \"name\": \"eterna-city\"\r\n        }\r\n      ]\r\n    }\r\n  }\r\n}"
			}
		},
		{
			"query": "location",
			"desc": "Get detail of location",
			"responseType": "BaseResponse",
			"param": "location: String!",
			"code": {
				"query": "",
				"variable": "",
				"result": ""
			}
		},
		{
			"query": "moves",
			"desc": "Get list of moves",
			"responseType": "BaseList",
			"param": null,
			"code": {
				"query": "query moves {\r\n  moves {\r\n    count\r\n    next\r\n    previous\r\n    results {\r\n      url\r\n      name\r\n    }\r\n  }\r\n}",
				"variable": "",
				"result": "{\r\n  \"data\": {\r\n    \"moves\": {\r\n      \"count\": 2,\r\n      \"next\": null,\r\n      \"previous\": null,\r\n      \"results\": [\r\n        {\r\n          \"url\": \"https:\/\/pokeapi.co\/api\/v2\/move\/1\/\",\r\n          \"name\": \"pound\"\r\n        },\r\n        {\r\n          \"url\": \"https:\/\/pokeapi.co\/api\/v2\/move\/2\/\",\r\n          \"name\": \"karate-chop\"\r\n        }\r\n      ]\r\n    }\r\n  }\r\n}"
			}
		},
		{
			"query": "move",
			"desc": "Get detail of move",
			"responseType": "BaseResponse",
			"param": "move: String!",
			"code": {
				"query": "",
				"variable": "",
				"result": ""
			}
		},
		{
			"query": "natures",
			"desc": "Get list of natures",
			"responseType": "BaseList",
			"param": null,
			"code": {
				"query": "query natures {\r\n  natures {\r\n    count\r\n    next\r\n    previous\r\n    results {\r\n      url\r\n      name\r\n    }\r\n  }\r\n}",
				"variable": "",
				"result": "{\r\n  \"data\": {\r\n    \"natures\": {\r\n      \"count\": 25,\r\n      \"next\": null,\r\n      \"previous\": null,\r\n      \"results\": [\r\n        {\r\n          \"url\": \"https:\/\/pokeapi.co\/api\/v2\/nature\/1\/\",\r\n          \"name\": \"hardy\"\r\n        },\r\n        {\r\n          \"url\": \"https:\/\/pokeapi.co\/api\/v2\/nature\/2\/\",\r\n          \"name\": \"bold\"\r\n        }\r\n      ]\r\n    }\r\n  }\r\n}"
			}
		},
		{
			"query": "nature",
			"desc": "Get detail of nature",
			"responseType": "BaseResponse",
			"param": "nature: String!",
			"code": {
				"query": "",
				"variable": "",
				"result": ""
			}
		},
		{
			"query": "pokemons",
			"desc": "Get list of pokemons",
			"responseType": "PokemonList",
			"param": "limit: Int, offset: Int",
			"code": {
				"query": "query pokemons($limit: Int, $offset: Int) {\r\n  pokemons(limit: $limit, offset: $offset) {\r\n    count\r\n    next\r\n    previous\r\n    nextOffset\r\n    prevOffset\r\n    status\r\n    message\r\n    results {\r\n      url\r\n      name\r\n      image\r\n    }\r\n  }\r\n}",
				"variable": "{\r\n  \"limit\": 2,\r\n  \"offset\": 1\r\n}",
				"result": "{\r\n  \"data\": {\r\n    \"pokemons\": {\r\n      \"count\": 1118,\r\n      \"next\": \"https:\/\/pokeapi.co\/api\/v2\/pokemon\/?offset=3&limit=2\",\r\n      \"previous\": \"https:\/\/pokeapi.co\/api\/v2\/pokemon\/?offset=0&limit=1\",\r\n      \"nextOffset\": 3,\r\n      \"prevOffset\": 0,\r\n      \"status\": true,\r\n      \"message\": \"\",\r\n      \"results\": [\r\n        {\r\n          \"url\": \"https:\/\/pokeapi.co\/api\/v2\/pokemon\/2\/\",\r\n          \"name\": \"ivysaur\",\r\n          \"image\": \"https:\/\/raw.githubusercontent.com\/PokeAPI\/sprites\/master\/sprites\/pokemon\/2.png\"\r\n        },\r\n        {\r\n          \"url\": \"https:\/\/pokeapi.co\/api\/v2\/pokemon\/3\/\",\r\n          \"name\": \"venusaur\",\r\n          \"image\": \"https:\/\/raw.githubusercontent.com\/PokeAPI\/sprites\/master\/sprites\/pokemon\/3.png\"\r\n        }\r\n      ]\r\n    }\r\n  }\r\n}"
			}
		},
		{
			"query": "pokemon",
			"desc": "Get detail of pokemon",
			"responseType": "Pokemon",
			"param": "name: String!",
			"code": {
				"query": "query pokemon($name: String!) {\r\n  pokemon(name: $name) {\r\n    id\r\n    name\r\n    sprites {\r\n      front_default\r\n    }\r\n    moves {\r\n      move {\r\n        name\r\n      }\r\n    }\r\n    types {\r\n      type {\r\n        name\r\n      }\r\n    }\r\n  }\r\n}",
				"variable": "{\r\n  \"name\": \"ditto\"\r\n}",
				"result": "{\r\n  \"data\": {\r\n    \"pokemon\": {\r\n      \"id\": 132,\r\n      \"name\": \"ditto\",\r\n      \"sprites\": {\r\n        \"front_default\": \"https:\/\/raw.githubusercontent.com\/PokeAPI\/sprites\/master\/sprites\/pokemon\/132.png\"\r\n      },\r\n      \"moves\": [\r\n        {\r\n          \"move\": {\r\n            \"name\": \"transform\"\r\n          }\r\n        }\r\n      ],\r\n      \"types\": [\r\n        {\r\n          \"type\": {\r\n            \"name\": \"normal\"\r\n          }\r\n        }\r\n      ]\r\n    }\r\n  }\r\n}"
			}
		},
		{
			"query": "regions",
			"desc": "Get list of regions",
			"responseType": "BaseList",
			"param": null,
			"code": {
				"query": "query regions {\r\n  regions {\r\n    count\r\n    next\r\n    previous\r\n    results {\r\n      url\r\n      name\r\n    }\r\n  }\r\n}",
				"variable": "",
				"result": "{\r\n  \"data\": {\r\n    \"regions\": {\r\n      \"count\": 8,\r\n      \"next\": null,\r\n      \"previous\": null,\r\n      \"results\": [\r\n        {\r\n          \"url\": \"https:\/\/pokeapi.co\/api\/v2\/region\/1\/\",\r\n          \"name\": \"kanto\"\r\n        },\r\n        {\r\n          \"url\": \"https:\/\/pokeapi.co\/api\/v2\/region\/2\/\",\r\n          \"name\": \"johto\"\r\n        }\r\n      ]\r\n    }\r\n  }\r\n}"
			}
		},
		{
			"query": "region",
			"desc": "Get detail of region",
			"responseType": "BaseResponse",
			"param": "region: String!",
			"code": {
				"query": "",
				"variable": "",
				"result": ""
			}
		},
		{
			"query": "species",
			"desc": "Get list of species",
			"responseType": "BaseList",
			"param": null,
			"code": {
				"query": "query species {\r\n  species {\r\n    count\r\n    next\r\n    previous\r\n    results {\r\n      url\r\n      name\r\n    }\r\n  }\r\n}",
				"variable": "",
				"result": "{\r\n  \"data\": {\r\n    \"species\": {\r\n      \"count\": 893,\r\n      \"next\": null,\r\n      \"previous\": null,\r\n      \"results\": [\r\n        {\r\n          \"url\": \"https:\/\/pokeapi.co\/api\/v2\/pokemon-species\/1\/\",\r\n          \"name\": \"bulbasaur\"\r\n        },\r\n        {\r\n          \"url\": \"https:\/\/pokeapi.co\/api\/v2\/pokemon-species\/2\/\",\r\n          \"name\": \"ivysaur\"\r\n        },\r\n        {\r\n          \"url\": \"https:\/\/pokeapi.co\/api\/v2\/pokemon-species\/3\/\",\r\n          \"name\": \"venusaur\"\r\n        }\r\n      ]\r\n    }\r\n  }\r\n}"
			}
		},
		{
			"query": "types",
			"desc": "Get list of types",
			"responseType": "BaseList",
			"param": null,
			"code": {
				"query": "query types {\r\n  types {\r\n    count\r\n    next\r\n    previous\r\n    results {\r\n      url\r\n      name\r\n    }\r\n  }\r\n}",
				"variable": "",
				"result": "{\r\n  \"data\": {\r\n    \"types\": {\r\n      \"count\": 20,\r\n      \"next\": null,\r\n      \"previous\": null,\r\n      \"results\": [\r\n        {\r\n          \"url\": \"https:\/\/pokeapi.co\/api\/v2\/type\/1\/\",\r\n          \"name\": \"normal\"\r\n        },\r\n        {\r\n          \"url\": \"https:\/\/pokeapi.co\/api\/v2\/type\/2\/\",\r\n          \"name\": \"fighting\"\r\n        }\r\n      ]\r\n    }\r\n  }\r\n}"
			}
		}
	]
}
